{
  "prefix": {
    "rdf": "http://www.w3.org/1999/02/22-rdf-syntax-ns#",
    "xsd": "http://www.w3.org/2001/XMLSchema#",
    "schema": "http://schema.org/",
    "prov": "http://www.w3.org/ns/prov#",
    "r4r": "http://guava.iis.sinica.edu.tw/r4r/",
    "agent": "http://data.odw.tw/agent/",
    "event": "http://purl.org/NET/c4dm/event.owl#",
    "voc": "http://voc.odw.tw/ontology#",
    "data": "http://data.odw.tw/record/",
    "skos": "http://www.w3.org/2004/02/skos/core#",
    "evt84": "http://data.odw.tw/event/"
  },
  "mapping": [
    {
      "subject": "subject_meta",
      "predicates": [
        {
          "name": "skos:definition",
          "lang": "en"
        },
        {
          "subject": "event:sub_event",
          "predicates": [
            {
              "name": "rdf:type_event:sub_event",
              "predicate": "rdf:type",
              "is_uri": true,
              "is_plural": true
            },
            {
              "name": "skos:scopeNote_event:sub_event",
              "predicate": "skos:scopeNote",
              "lang": "en"
            },
            {
              "name": "skos:editorialNote_event:sub_event",
              "predicate": "skos:editorialNote",
              "datatype": "rdf:PlainLiteral"
            }
          ]
        }
      ],
      "fixed_predicates": [
        {
          "predicate": "rdf:type",
	  "objects": ["data:Refined", "r4r:Data", "voc:Event"]
	}
      ],
      "predicates_uri": [
        "r4r:locateAt",
        "r4r:hasProvenance"
      ]
    },
    {
      "subject": "subject_prov",
      "fixed_predicates": [
        {
          "predicate": "rdf:type",
          "objects": ["data:Provenance", "r4r:Provenance", "prov:Activity"]
        },
        {
          "predicate": "prov:wasAssociatedWith",
          "objects": ["http://data.odw.tw", "http://data.odw.tw/agent/q20872470"]
        },
        {
	  "predicate": "prov:atLocation",
          "objects": ["http://sws.geonames.org/6728700"]
        },
	{
	  "predicate": "r4r:hasLicense",
	  "objects": ["http://creativecommons.org/licenses/by/4.0/"]
        }
      ],
      "predicates_uri": [
        "r4r:isPackagedWith"
      ]
    }
  ]
}
